…
### Negative integers

``` r
diamonds[-(1:53900), -1]
```

    ## # A tibble: 40 x 9
    ##          cut color clarity depth table price     x     y     z
    ##        <ord> <ord>   <ord> <dbl> <dbl> <int> <dbl> <dbl> <dbl>
    ##  1     Ideal     H     VS2  62.5    58  2752  5.71  5.75  3.58
    ##  2   Premium     E     VS1  61.6    58  2753  5.36  5.33  3.29
    ##  3 Very Good     E     SI2  59.9    61  2753  5.98  6.01  3.59
    ##  4 Very Good     E     SI1  62.9    57  2753  5.79  5.84  3.66
    ##  5   Premium     E     SI1  61.3    58  2753  5.68  5.71  3.49
    ##  6   Premium     E     SI1  60.0    59  2753  5.75  5.79  3.46
    ##  7 Very Good     E     SI1  63.0    55  2753  5.76  5.79  3.64
    ##  8 Very Good     E     SI1  61.0    57  2753  5.68  5.73  3.48
    ##  9 Very Good     E     SI1  61.2    57  2753  5.68  5.73  3.49
    ## 10 Very Good     E     SI1  62.7    59  2753  5.63  5.67  3.54
    ## # ... with 30 more rows
…
