…
### Exercise

``` r
large_stones <- subset(diamonds, carat > 3)
arrange(large_stones, desc(price))
```

    ## # A tibble: 32 x 12
    ##    carat     cut color clarity depth table price     x     y     z
    ##    <dbl>   <ord> <ord>   <ord> <dbl> <dbl> <int> <dbl> <dbl> <dbl>
    ##  1  3.01 Premium     J     SI2  60.7    59 18710  9.35  9.22  5.64
    ##  2  3.01 Premium     J     SI2  59.7    58 18710  9.41  9.32  5.59
    ##  3  3.51 Premium     J     VS2  62.5    59 18701  9.66  9.63  6.03
    ##  4  3.01    Good     H     SI2  57.6    64 18593  9.44  9.38  5.42
    ##  5  3.04 Premium     I     SI2  59.3    60 18559  9.51  9.46  5.62
    ##  6  4.50    Fair     J      I1  65.8    58 18531 10.23 10.16  6.72
    ##  7  3.01 Premium     I     SI2  60.2    59 18242  9.36  9.31  5.62
    ##  8  3.01    Fair     I     SI2  65.8    56 18242  8.99  8.94  5.90
    ##  9  3.01    Fair     I     SI2  65.8    56 18242  8.99  8.94  5.90
    ## 10  3.01    Good     I     SI2  63.9    60 18242  9.06  9.01  5.77
    ## # ... with 22 more rows, and 2 more variables: volume <dbl>, density <dbl>
…
